{
   "data": [
      {
         "avatar": "https://s3.amazonaws.com/uifaces/faces/twitter/calebogden/128.jpg",
         "email": "george.bluth@reqres.in",
         "first_name": "George",
         "id": 1,
         "last_name": "Bluth"
      },
      {
         "avatar": "https://s3.amazonaws.com/uifaces/faces/twitter/josephstein/128.jpg",
         "email": "janet.weaver@reqres.in",
         "first_name": "Janet",
         "id": 2,
         "last_name": "Weaver"
      },
      {
         "avatar": "https://s3.amazonaws.com/uifaces/faces/twitter/olegpogodaev/128.jpg",
         "email": "emma.wong@reqres.in",
         "first_name": "Emma",
         "id": 3,
         "last_name": "Wong"
      },
      {
         "avatar": "https://s3.amazonaws.com/uifaces/faces/twitter/marcoramires/128.jpg",
         "email": "eve.holt@reqres.in",
         "first_name": "Eve",
         "id": 4,
         "last_name": "Holt"
      },
      {
         "avatar": "https://s3.amazonaws.com/uifaces/faces/twitter/stephenmoon/128.jpg",
         "email": "charles.morris@reqres.in",
         "first_name": "Charles",
         "id": 5,
         "last_name": "Morris"
      },
      {
         "avatar": "https://s3.amazonaws.com/uifaces/faces/twitter/bigmancho/128.jpg",
         "email": "tracey.ramos@reqres.in",
         "first_name": "Tracey",
         "id": 6,
         "last_name": "Ramos"
      }
   ],
   "page": 1,
   "per_page": 6,
   "total": 12,
   "total_pages": 2
}